{
  "o3": [
    {
      "index": 1,
      "name": "Good",
      "upper": 0.05
    },
    {
      "index": 2,
      "name": "Moderate",
      "lower": 0.05,
      "upper": 0.1
    },
    {
      "index": 3,
      "name": "Poor",
      "lower": 0.1,
      "upper": 0.15
    },
    {
      "index": 4,
      "name": "Very poor",
      "lower": 0.15,
      "upper": 0.3
    },
    {
      "index": 5,
      "name": "Hazardous",
      "lower": 0.3
    }
  ],
  "no2": [
    {
      "index": 1,
      "name": "Good",
      "upper": 0.06
    },
    {
      "index": 2,
      "name": "Moderate",
      "lower": 0.06,
      "upper": 0.12
    },
    {
      "index": 3,
      "name": "Poor",
      "lower": 0.12,
      "upper": 0.18
    },
    {
      "index": 4,
      "name": "Very poor",
      "lower": 0.18,
      "upper": 0.36
    },
    {
      "index": 5,
      "name": "Hazardous",
      "lower": 0.36
    }
  ],
  "so2": [
    {
      "index": 1,
      "name": "Good",
      "upper": 0.1
    },
    {
      "index": 2,
      "name": "Moderate",
      "lower": 0.1,
      "upper": 0.2
    },
    {
      "index": 3,
      "name": "Poor",
      "lower": 0.2,
      "upper": 0.3
    },
    {
      "index": 4,
      "name": "Very poor",
      "lower": 0.3,
      "upper": 0.6
    },
    {
      "index": 5,
      "name": "Hazardous",
      "lower": 0.6
    }
  ],
  "pm10": [
    {
      "index": 1,
      "name": "Good",
      "upper": 40
    },
    {
      "index": 2,
      "name": "Moderate",
      "lower": 40,
      "upper": 80
    },
    {
      "index": 3,
      "name": "Poor",
      "lower": 80,
      "upper": 120
    },
    {
      "index": 4,
      "name": "Very poor",
      "lower": 120,
      "upper": 240
    },
    {
      "index": 5,
      "name": "Hazardous",
      "lower": 240
    }
  ],
  "pm25": [
    {
      "index": 1,
      "name": "Good",
      "upper": 27
    },
    {
      "index": 2,
      "name": "Moderate",
      "lower": 27,
      "upper": 62
    },
    {
      "index": 3,
      "name": "Poor",
      "lower": 62,
      "upper": 97
    },
    {
      "index": 4,
      "name": "Very poor",
      "lower": 97,
      "upper": 370
    },
    {
      "index": 5,
      "name": "Hazardous",
      "lower": 370
    }
  ],
  "co": [
    {
      "index": 1,
      "name": "Good",
      "upper": 30
    },
    {
      "index": 2,
      "name": "Poor",
      "lower": 30,
      "upper": 70
    },
    {
      "index": 3,
      "name": "Hazardous",
      "lower": 70
    }
  ]
}
